Examples/AlgoBlock/AlgoWave.vcd
$date
     Apr 22, 2014       05:59:13
$end

$version
              SystemC 2.2.0 --- Apr 22 2014 04:22:38
$end

$timescale
     1 ns
$end

$scope module SystemC $end
$var wire    1  aaa  clock       $end
$var wire    1  aab  reset       $end
$var wire   32  aac  in_reg2 [31:0]  $end
$var wire   32  aad  in_coef0 [31:0]  $end
$var wire   16  aae  in_data [15:0]  $end
$var wire    1  aaf  data_valid       $end
$var wire    1  aag  data_ack       $end
$var wire   16  aah  out_data [15:0]  $end
$var wire    1  aai  data_req       $end
$var wire    1  aaj  data_ready       $end
$upscope $end
$enddefinitions  $end

$comment
All initial values are dumped below at time 0 sec = 0 timescale units.
$end

$dumpvars
1aaa
1aab
b10 aac
b10010110 aad
b0 aae
0aaf
0aag
b0 aah
0aai
0aaj
$end

#15
0aaa

#30
1aaa

#45
0aaa

#60
1aaa

#75
0aaa

#90
1aaa

#105
0aaa

#120
1aaa

#135
0aaa

#150
1aaa
0aab
1aai

#165
0aaa

#180
1aaa
1aaf

#195
0aaa

#210
1aaa
0aai

#225
0aaa

#240
1aaa

#255
0aaa

#270
1aaa

#285
0aaa

#300
1aaa

#315
0aaa

#330
1aaa
0aaf

#345
0aaa

#360
1aaa

#375
0aaa

#390
1aaa
1aai

#405
0aaa

#420
1aaa
b1100101111000 aae
1aaf

#435
0aaa

#450
1aaa
0aai

#465
0aaa

#480
1aaa

#495
0aaa

#510
1aaa

#525
0aaa

#540
1aaa

#555
0aaa

#570
1aaa
0aaf

#585
0aaa

#600
1aaa

#615
0aaa

#630
1aaa
1aai

#645
0aaa

#660
1aaa
b10100010111110 aae
1aaf

#675
0aaa

#690
1aaa
0aai

#705
0aaa

#720
1aaa

#735
0aaa

#750
1aaa

#765
0aaa

#780
1aaa

#795
0aaa

#810
1aaa
0aaf

#825
0aaa

#840
1aaa

#855
0aaa

#870
1aaa
1aai

#885
0aaa

#900
1aaa
b10100010010011 aae
1aaf

#915
0aaa

#930
1aaa
0aai

#945
0aaa

#960
1aaa

#975
0aaa

#990
1aaa

#1005
0aaa

#1020
1aaa

#1035
0aaa

#1050
1aaa
0aaf

#1065
0aaa

#1080
1aaa

#1095
0aaa

#1110
1aaa
1aai

#1125
0aaa

#1140
1aaa
b1101100110100 aae
1aaf

#1155
0aaa

#1170
1aaa
0aai

#1185
0aaa

#1200
1aaa

#1215
0aaa

#1230
1aaa

#1245
0aaa

#1260
1aaa

#1275
0aaa

#1290
1aaa
0aaf

#1305
0aaa

#1320
1aaa

#1335
0aaa

#1350
1aaa
1aai

#1365
0aaa

#1380
1aaa
b100101000010 aae
1aaf

#1395
0aaa

#1410
1aaa
0aai

#1425
0aaa

#1440
1aaa

#1455
0aaa

#1470
1aaa

#1485
0aaa

#1500
1aaa

#1515
0aaa

#1530
1aaa
0aaf

#1545
0aaa

#1560
1aaa

#1575
0aaa

#1590
1aaa
1aai

#1605
0aaa

#1620
1aaa
b1111110110001110 aae
1aaf

#1635
0aaa

#1650
1aaa
0aai

#1665
0aaa

#1680
1aaa

#1695
0aaa

#1710
1aaa

#1725
0aaa

#1740
1aaa

#1755
0aaa

#1770
1aaa
0aaf

#1785
0aaa

#1800
1aaa

#1815
0aaa

#1830
1aaa
1aai

#1845
0aaa

#1860
1aaa
b1111111111001110 aae
1aaf

#1875
0aaa

#1890
1aaa
0aai

#1905
0aaa

#1920
1aaa

#1935
0aaa

#1950
1aaa

#1965
0aaa

#1980
1aaa

#1995
0aaa

#2010
1aaa
0aaf

#2025
0aaa

#2040
1aaa

#2055
0aaa

#2070
1aaa

#2085
0aaa

#2100
1aaa

#2115
0aaa

#2130
1aaa

#2145
0aaa

#2160
1aaa

#2175
0aaa

#2190
1aaa

#2205
0aaa

#2220
1aaa

#2235
0aaa

#2250
1aaa

#2265
0aaa

#2280
1aaa

#2295
0aaa

#2310
1aaa

#2325
0aaa

#2340
1aaa

#2355
0aaa

#2370
1aaa

#2385
0aaa

#2400
1aaa

#2415
0aaa

#2430
1aaa

#2445
0aaa

#2460
1aaa

#2475
0aaa

#2490
1aaa

#2505
0aaa

#2520
1aaa

#2535
0aaa

#2550
1aaa

#2565
0aaa

#2580
1aaa
1aaj

#2595
0aaa

#2610
1aaa
1aag

#2625
0aaa

#2640
1aaa
0aaj

#2655
0aaa

#2670
1aaa

#2685
0aaa

#2700
1aaa

#2715
0aaa

#2730
1aaa

#2745
0aaa

#2760
1aaa
0aag

#2775
0aaa

#2790
1aaa

#2805
0aaa

#2820
1aaa
b11101 aah
1aaj

#2835
0aaa

#2850
1aaa
1aag

#2865
0aaa

#2880
1aaa
0aaj

#2895
0aaa

#2910
1aaa

#2925
0aaa

#2940
1aaa

#2955
0aaa

#2970
1aaa

#2985
0aaa

#3000
1aaa
0aag

#3015
0aaa

#3030
1aaa

#3045
0aaa

#3060
1aaa
b10011111 aah
1aaj

#3075
0aaa

#3090
1aaa
1aag

#3105
0aaa

#3120
1aaa
0aaj

#3135
0aaa

#3150
1aaa

#3165
0aaa

#3180
1aaa

#3195
0aaa

#3210
1aaa

#3225
0aaa

#3240
1aaa
0aag

#3255
0aaa

#3270
1aaa

#3285
0aaa

#3300
1aaa
b110110011 aah
1aaj

#3315
0aaa

#3330
1aaa
1aag

#3345
0aaa

#3360
1aaa
0aaj

#3375
0aaa

#3390
1aaa

#3405
0aaa

#3420
1aaa

#3435
0aaa

#3450
1aaa

#3465
0aaa

#3480
1aaa
0aag

#3495
0aaa

#3510
1aaa

#3525
0aaa

#3540
1aaa
b1100111011 aah
1aaj

#3555
0aaa

#3570
1aaa
1aag

#3585
0aaa

#3600
1aaa
0aaj

#3615
0aaa

#3630
1aaa

#3645
0aaa

#3660
1aaa

#3675
0aaa

#3690
1aaa

#3705
0aaa

#3720
1aaa
0aag

#3735
0aaa

#3750
1aaa

#3765
0aaa

#3780
1aaa
b10011100110 aah
1aaj

#3795
0aaa

#3810
1aaa
1aag

#3825
0aaa

#3840
1aaa
0aaj

#3855
0aaa

#3870
1aaa

#3885
0aaa

#3900
1aaa

#3915
0aaa

#3930
1aaa

#3945
0aaa

#3960
1aaa
0aag

#3975
0aaa

#3990
1aaa

#4005
0aaa

#4020
1aaa
b11001011110 aah
1aaj

#4035
0aaa

#4050
1aaa
1aag

#4065
0aaa

#4080
1aaa
0aaj

#4095
0aaa

#4110
1aaa

#4125
0aaa

#4140
1aaa

#4155
0aaa

#4170
1aaa

#4185
0aaa

#4200
1aaa
0aag

#4215
0aaa

#4230
1aaa

#4245
0aaa

#4260
1aaa
b11101111000 aah
1aaj

#4275
0aaa

#4290
1aaa
1aag

#4305
0aaa

#4320
1aaa
0aaj

#4335
0aaa

#4350
1aaa

#4365
0aaa

#4380
1aaa

#4395
0aaa

#4410
1aaa

#4425
0aaa

#4440
1aaa
0aag

#4455
0aaa

#4470
1aaa

#4485
0aaa

#4500
1aaa

#4515
0aaa

#4530
1aaa
1aai

#4545
0aaa

#4560
1aaa
b1000011100010 aae
1aaf

#4575
0aaa

#4590
1aaa
0aai

#4605
0aaa

#4620
1aaa

#4635
0aaa

#4650
1aaa

#4665
0aaa

#4680
1aaa

#4695
0aaa

#4710
1aaa
0aaf

#4725
0aaa

#4740
1aaa

#4755
0aaa

#4770
1aaa
1aai

#4785
0aaa

#4800
1aaa
b10101001011110 aae
1aaf

#4815
0aaa

#4830
1aaa
0aai

#4845
0aaa

#4860
1aaa

#4875
0aaa

#4890
1aaa

#4905
0aaa

#4920
1aaa

#4935
0aaa

#4950
1aaa
0aaf

#4965
0aaa

#4980
1aaa

#4995
0aaa

#5010
1aaa
1aai

#5025
0aaa

#5040
1aaa
b100000110101100 aae
1aaf

#5055
0aaa

#5070
1aaa
0aai

#5085
0aaa

#5100
1aaa

#5115
0aaa

#5130
1aaa

#5145
0aaa

#5160
1aaa

#5175
0aaa

#5190
1aaa
0aaf

#5205
0aaa

#5220
1aaa

#5235
0aaa

#5250
1aaa
1aai

#5265
0aaa

#5280
1aaa
b100110100101010 aae
1aaf

#5295
0aaa

#5310
1aaa
0aai

#5325
0aaa

#5340
1aaa

#5355
0aaa

#5370
1aaa

#5385
0aaa

#5400
1aaa

#5415
0aaa

#5430
1aaa
0aaf

#5445
0aaa

#5460
1aaa

#5475
0aaa

#5490
1aaa
1aai

#5505
0aaa

#5520
1aaa
b100100011011110 aae
1aaf

#5535
0aaa

#5550
1aaa
0aai

#5565
0aaa

#5580
1aaa

#5595
0aaa

#5610
1aaa

#5625
0aaa

#5640
1aaa

#5655
0aaa

#5670
1aaa
0aaf

#5685
0aaa

#5700
1aaa

#5715
0aaa

#5730
1aaa
1aai

#5745
0aaa

#5760
1aaa
b11100001011111 aae
1aaf

#5775
0aaa

#5790
1aaa
0aai

#5805
0aaa

#5820
1aaa

#5835
0aaa

#5850
1aaa

#5865
0aaa

#5880
1aaa

#5895
0aaa

#5910
1aaa
0aaf

#5925
0aaa

#5940
1aaa

#5955
0aaa

#5970
1aaa
1aai

#5985
0aaa

#6000
1aaa
b10010100010011 aae
1aaf

#6015
0aaa

#6030
1aaa
0aai

#6045
0aaa

#6060
1aaa

#6075
0aaa

#6090
1aaa

#6105
0aaa

#6120
1aaa

#6135
0aaa

#6150
1aaa
b11 aac
0aaf

#6165
0aaa

#6180
1aaa

#6195
0aaa

#6210
1aaa
1aai

#6225
0aaa

#6240
1aaa
b1100110011110 aae
1aaf

#6255
0aaa

#6270
1aaa
0aai

#6285
0aaa

#6300
1aaa

#6315
0aaa

#6330
1aaa

#6345
0aaa

#6360
1aaa

#6375
0aaa

#6390
1aaa
0aaf

#6405
0aaa

#6420
1aaa

#6435
0aaa

#6450
1aaa

#6465
0aaa

#6480
1aaa

#6495
0aaa

#6510
1aaa

#6525
0aaa

#6540
1aaa

#6555
0aaa

#6570
1aaa

#6585
0aaa

#6600
1aaa

#6615
0aaa

#6630
1aaa

#6645
0aaa

#6660
1aaa

#6675
0aaa

#6690
1aaa

#6705
0aaa

#6720
1aaa

#6735
0aaa

#6750
1aaa

#6765
0aaa

#6780
1aaa

#6795
0aaa

#6810
1aaa

#6825
0aaa

#6840
1aaa

#6855
0aaa

#6870
1aaa

#6885
0aaa

#6900
1aaa

#6915
0aaa

#6930
1aaa

#6945
0aaa

#6960
1aaa
b100001001011 aah
1aaj

#6975
0aaa

#6990
1aaa
1aag

#7005
0aaa

#7020
1aaa
0aaj

#7035
0aaa

#7050
1aaa

#7065
0aaa

#7080
1aaa

#7095
0aaa

#7110
1aaa

#7125
0aaa

#7140
1aaa
0aag

#7155
0aaa

#7170
1aaa

#7185
0aaa

#7200
1aaa
b100100101001 aah
1aaj

#7215
0aaa

#7230
1aaa
1aag

#7245
0aaa

#7260
1aaa
0aaj

#7275
0aaa

#7290
1aaa

#7305
0aaa

#7320
1aaa

#7335
0aaa

#7350
1aaa

#7365
0aaa

#7380
1aaa
0aag

#7395
0aaa

#7410
1aaa

#7425
0aaa

#7440
1aaa
b101001110111 aah
1aaj

#7455
0aaa

#7470
1aaa
1aag

#7485
0aaa

#7500
1aaa
0aaj

#7515
0aaa

#7530
1aaa

#7545
0aaa

#7560
1aaa

#7575
0aaa

#7590
1aaa

#7605
0aaa

#7620
1aaa
0aag

#7635
0aaa

#7650
1aaa
b10 aac

#7665
0aaa

#7680
1aaa
b110001111101 aah
1aaj

#7695
0aaa

#7710
1aaa
1aag

#7725
0aaa

#7740
1aaa
0aaj

#7755
0aaa

#7770
1aaa

#7785
0aaa

#7800
1aaa

#7815
0aaa

#7830
1aaa

#7845
0aaa

#7860
1aaa
0aag

#7875
0aaa

#7890
1aaa

#7905
0aaa

#7920
1aaa
b111101000001 aah
1aaj

#7935
0aaa

#7950
1aaa
1aag

#7965
0aaa

#7980
1aaa
0aaj

#7995
0aaa

#8010
1aaa

#8025
0aaa

#8040
1aaa

#8055
0aaa

#8070
1aaa

#8085
0aaa

#8100
1aaa
0aag

#8115
0aaa

#8130
1aaa

#8145
0aaa

#8160
1aaa
b1001010000011 aah
1aaj

#8175
0aaa

#8190
1aaa
1aag

#8205
0aaa

#8220
1aaa
0aaj

#8235
0aaa

#8250
1aaa

#8265
0aaa

#8280
1aaa

#8295
0aaa

#8310
1aaa

#8325
0aaa

#8340
1aaa
0aag

#8355
0aaa

#8370
1aaa

#8385
0aaa

#8400
1aaa
b1010111011010 aah
1aaj

#8415
0aaa

#8430
1aaa
1aag

#8445
0aaa

#8460
1aaa
0aaj

#8475
0aaa

#8490
1aaa

#8505
0aaa

#8520
1aaa

#8535
0aaa

#8550
1aaa

#8565
0aaa

#8580
1aaa
0aag

#8595
0aaa

#8610
1aaa

#8625
0aaa

#8640
1aaa
b1100011100100 aah
1aaj

#8655
0aaa

#8670
1aaa
1aag

#8685
0aaa

#8700
1aaa
0aaj

#8715
0aaa

#8730
1aaa

#8745
0aaa

#8760
1aaa

#8775
0aaa

#8790
1aaa

#8805
0aaa

#8820
1aaa
0aag

#8835
0aaa

#8850
1aaa

#8865
0aaa

#8880
1aaa

#8895
0aaa

#8910
1aaa
1aai

#8925
0aaa

#8940
1aaa
b1110010110100 aae
1aaf

#8955
0aaa

#8970
1aaa
0aai

#8985
0aaa

#9000
1aaa

#9015
0aaa

#9030
1aaa

#9045
0aaa

#9060
1aaa

#9075
0aaa

#9090
1aaa
0aaf

#9105
0aaa

#9120
1aaa

#9135
0aaa

#9150
1aaa
1aai

#9165
0aaa

#9180
1aaa
b10110111001111 aae
1aaf

#9195
0aaa

#9210
1aaa
0aai

#9225
0aaa

#9240
1aaa

#9255
0aaa

#9270
1aaa

#9285
0aaa

#9300
1aaa

#9315
0aaa

#9330
1aaa
0aaf

#9345
0aaa

#9360
1aaa

#9375
0aaa

#9390
1aaa
1aai

#9405
0aaa

#9420
1aaa
b100010101111000 aae
1aaf

#9435
0aaa

#9450
1aaa
0aai

#9465
0aaa

#9480
1aaa

#9495
0aaa

#9510
1aaa

#9525
0aaa

#9540
1aaa

#9555
0aaa

#9570
1aaa
0aaf

#9585
0aaa

#9600
1aaa

#9615
0aaa

#9630
1aaa
1aai

#9645
0aaa

#9660
1aaa
b101100011011110 aae
1aaf

#9675
0aaa

#9690
1aaa
0aai

#9705
0aaa

#9720
1aaa

#9735
0aaa

#9750
1aaa

#9765
0aaa

#9780
1aaa

#9795
0aaa

#9810
1aaa
0aaf

#9825
0aaa

#9840
1aaa

#9855
0aaa

#9870
1aaa
1aai

#9885
0aaa

#9900
1aaa
b101111100011110 aae
1aaf

#9915
0aaa

#9930
1aaa
0aai

#9945
0aaa

#9960
1aaa

#9975
0aaa

#9990
1aaa

#10005
0aaa

#10020
1aaa

#10035
0aaa

#10050
1aaa
0aaf

#10065
0aaa

#10080
1aaa

#10095
0aaa

#10110
1aaa
1aai

#10125
0aaa

#10140
1aaa
b101010110010101 aae
1aaf

#10155
0aaa

#10170
1aaa
0aai

#10185
0aaa

#10200
1aaa

#10215
0aaa

#10230
1aaa

#10245
0aaa

#10260
1aaa

#10275
0aaa

#10290
1aaa
0aaf

#10305
0aaa

#10320
1aaa

#10335
0aaa

#10350
1aaa
1aai

#10365
0aaa

#10380
1aaa
b100000100100011 aae
1aaf

#10395
0aaa

#10410
1aaa
0aai

#10425
0aaa

#10440
1aaa

#10455
0aaa

#10470
1aaa

#10485
0aaa

#10500
1aaa

#10515
0aaa

#10530
1aaa
0aaf

#10545
0aaa

#10560
1aaa

#10575
0aaa

#10590
1aaa
1aai

#10605
0aaa

#10620
1aaa
b10101111001111 aae
1aaf

#10635
0aaa

#10650
1aaa
0aai

#10665
0aaa

#10680
1aaa

#10695
0aaa

#10710
1aaa

#10725
0aaa

#10740
1aaa

#10755
0aaa

#10770
1aaa
0aaf

#10785
0aaa

#10800
1aaa

#10815
0aaa

#10830
1aaa

#10845
0aaa

#10860
1aaa

#10875
0aaa

#10890
1aaa

#10905
0aaa

#10920
1aaa

#10935
0aaa

#10950
1aaa

#10965
0aaa

#10980
1aaa

#10995
0aaa

#11010
1aaa

#11025
0aaa

#11040
1aaa

#11055
0aaa

#11070
1aaa

#11085
0aaa

#11100
1aaa

#11115
0aaa

#11130
1aaa

#11145
0aaa

#11160
1aaa

#11175
0aaa

#11190
1aaa

#11205
0aaa

#11220
1aaa

#11235
0aaa

#11250
1aaa

#11265
0aaa

#11280
1aaa

#11295
0aaa

#11310
1aaa

#11325
0aaa

#11340
1aaa
b1101101110011 aah
1aaj

#11355
0aaa

#11370
1aaa
1aag

#11385
0aaa

#11400
1aaa
0aaj

#11415
0aaa

#11430
1aaa

#11445
0aaa

#11460
1aaa

#11475
0aaa

#11490
1aaa

#11505
0aaa

#11520
1aaa
0aag

#11535
0aaa

#11550
1aaa

#11565
0aaa

#11580
1aaa
b1110110011111 aah
1aaj

#11595
0aaa

#11610
1aaa
1aag

#11625
0aaa

#11640
1aaa
0aaj

#11655
0aaa

#11670
1aaa

#11685
0aaa

#11700
1aaa

#11715
0aaa

#11730
1aaa

#11745
0aaa

#11760
1aaa
0aag

#11775
0aaa

#11790
1aaa

#11805
0aaa

#11820
1aaa
b1111110111000 aah
1aaj

#11835
0aaa

#11850
1aaa
1aag

#11865
0aaa

#11880
1aaa
0aaj

#11895
0aaa

#11910
1aaa

#11925
0aaa

#11940
1aaa

#11955
0aaa

#11970
1aaa

#11985
0aaa

#12000
1aaa
0aag

#12015
0aaa

#12030
1aaa

#12045
0aaa

#12060
1aaa
b10001000011010 aah
1aaj

#12075
0aaa

#12090
1aaa
1aag

#12105
0aaa

#12120
1aaa
0aaj

#12135
0aaa

#12150
1aaa

#12165
0aaa

#12180
1aaa

#12195
0aaa

#12210
1aaa

#12225
0aaa

#12240
1aaa
0aag

#12255
0aaa

#12270
1aaa

#12285
0aaa

#12300
1aaa
b10010011111101 aah
1aaj

#12315
0aaa

#12330
1aaa
1aag

#12345
0aaa

#12360
1aaa
0aaj

#12375
0aaa

#12390
1aaa

#12405
0aaa

#12420
1aaa

#12435
0aaa

#12450
1aaa

#12465
0aaa

#12480
1aaa
0aag

#12495
0aaa

#12510
1aaa

#12525
0aaa

#12540
1aaa
b10100001010110 aah
1aaj

#12555
0aaa

#12570
1aaa
1aag

#12585
0aaa

#12600
1aaa
0aaj

#12615
0aaa

#12630
1aaa

#12645
0aaa

#12660
1aaa

#12675
0aaa

#12690
1aaa

#12705
0aaa

#12720
1aaa
0aag

#12735
0aaa

#12750
1aaa

#12765
0aaa

#12780
1aaa
b10101111011000 aah
1aaj

#12795
0aaa

#12810
1aaa
1aag

#12825
0aaa

#12840
1aaa
0aaj

#12855
0aaa

#12870
1aaa

#12885
0aaa

#12900
1aaa

#12915
0aaa

#12930
1aaa

#12945
0aaa

#12960
1aaa
0aag

#12975
0aaa

#12990
1aaa

#13005
0aaa

#13020
1aaa
b10111100010111 aah
1aaj

#13035
0aaa

#13050
1aaa
1aag

#13065
0aaa

#13080
1aaa
0aaj

#13095
0aaa

#13110
1aaa

#13125
0aaa

#13140
1aaa

#13155
0aaa

#13170
1aaa

#13185
0aaa

#13200
1aaa
0aag

#13215
0aaa

#13230
1aaa

#13245
0aaa

#13260
1aaa

#13275
0aaa

#13290
1aaa
1aai

#13305
0aaa

#13320
1aaa
b1111111101000 aae
1aaf

#13335
0aaa

#13350
1aaa
0aai

#13365
0aaa

#13380
1aaa

#13395
0aaa

#13410
1aaa

#13425
0aaa

#13440
1aaa

#13455
0aaa

#13470
1aaa
0aaf

#13485
0aaa

#13500
1aaa

#13515
0aaa

#13530
1aaa
1aai

#13545
0aaa

#13560
1aaa
b10001011111110 aae
1aaf

#13575
0aaa

#13590
1aaa
0aai

#13605
0aaa

#13620
1aaa

#13635
0aaa

#13650
1aaa
b11 aac

#13665
0aaa

#13680
1aaa

#13695
0aaa

#13710
1aaa
0aaf

#13725
0aaa

#13740
1aaa

#13755
0aaa

#13770
1aaa
1aai

#13785
0aaa

#13800
1aaa
b11001100101110 aae
1aaf

#13815
0aaa

#13830
1aaa
0aai

#13845
0aaa

#13860
1aaa

#13875
0aaa

#13890
1aaa

#13905
0aaa

#13920
1aaa

#13935
0aaa

#13950
1aaa
0aaf

#13965
0aaa

#13980
1aaa

#13995
0aaa

#14010
1aaa
1aai

#14025
0aaa

#14040
1aaa
b100100000010001 aae
1aaf

#14055
0aaa

#14070
1aaa
0aai

#14085
0aaa

#14100
1aaa

#14115
0aaa

#14130
1aaa

#14145
0aaa

#14160
1aaa

#14175
0aaa

#14190
1aaa
0aaf

#14205
0aaa

#14220
1aaa

#14235
0aaa

#14250
1aaa
1aai

#14265
0aaa

#14280
1aaa
b101011011001111 aae
1aaf

#14295
0aaa

#14310
1aaa
0aai

#14325
0aaa

#14340
1aaa

#14355
0aaa

#14370
1aaa

#14385
0aaa

#14400
1aaa

#14415
0aaa

#14430
1aaa
0aaf

#14445
0aaa

#14460
1aaa

#14475
0aaa

#14490
1aaa
1aai

#14505
0aaa

#14520
1aaa
b101011101100111 aae
1aaf

#14535
0aaa

#14550
1aaa
0aai

#14565
0aaa

#14580
1aaa

#14595
0aaa

#14610
1aaa

#14625
0aaa

#14640
1aaa

#14655
0aaa

#14670
1aaa
0aaf

#14685
0aaa

#14700
1aaa

#14715
0aaa

#14730
1aaa
1aai

#14745
0aaa

#14760
1aaa
b100100010010111 aae
1aaf

#14775
0aaa

#14790
1aaa
0aai

#14805
0aaa

#14820
1aaa

#14835
0aaa

#14850
1aaa

#14865
0aaa

#14880
1aaa

#14895
0aaa

#14910
1aaa
0aaf

#14925
0aaa

#14940
1aaa

#14955
0aaa

#14970
1aaa
1aai

#14985
0aaa

#15000
1aaa
b11000001110111 aae
1aaf

#15015
0aaa

#15030
1aaa
0aai

#15045
0aaa

#15060
1aaa

#15075
0aaa

#15090
1aaa

#15105
0aaa

#15120
1aaa

#15135
0aaa

#15150
1aaa
b10 aac
0aaf

#15165
0aaa

#15180
1aaa

#15195
0aaa

#15210
1aaa

#15225
0aaa

#15240
1aaa

#15255
0aaa

#15270
1aaa

#15285
0aaa

#15300
1aaa

#15315
0aaa

#15330
1aaa

#15345
0aaa

#15360
1aaa

#15375
0aaa

#15390
1aaa

#15405
0aaa

#15420
1aaa

#15435
0aaa

#15450
1aaa

#15465
0aaa

#15480
1aaa

#15495
0aaa

#15510
1aaa

#15525
0aaa

#15540
1aaa

#15555
0aaa

#15570
1aaa

#15585
0aaa

#15600
1aaa

#15615
0aaa

#15630
1aaa

#15645
0aaa

#15660
1aaa

#15675
0aaa

#15690
1aaa

#15705
0aaa

#15720
1aaa
b11000110111000 aah
1aaj

#15735
0aaa

#15750
1aaa
1aag

#15765
0aaa

#15780
1aaa
0aaj

#15795
0aaa

#15810
1aaa

#15825
0aaa

#15840
1aaa

#15855
0aaa

#15870
1aaa

#15885
0aaa

#15900
1aaa
0aag

#15915
0aaa

#15930
1aaa

#15945
0aaa

#15960
1aaa
b11001110011010 aah
1aaj

#15975
0aaa

#15990
1aaa
1aag

#16005
0aaa

#16020
1aaa
0aaj

#16035
0aaa

#16050
1aaa

#16065
0aaa

#16080
1aaa

#16095
0aaa

#16110
1aaa

#16125
0aaa

#16140
1aaa
0aag

#16155
0aaa

#16170
1aaa

#16185
0aaa

#16200
1aaa
b11010011100011 aah
1aaj

#16215
0aaa

#16230
1aaa
1aag

#16245
0aaa

#16260
1aaa
0aaj

#16275
0aaa

#16290
1aaa

#16305
0aaa

#16320
1aaa

#16335
0aaa

#16350
1aaa

#16365
0aaa

#16380
1aaa
0aag

#16395
0aaa

#16410
1aaa

#16425
0aaa

#16440
1aaa
b11010111101011 aah
1aaj

#16455
0aaa

#16470
1aaa
1aag

#16485
0aaa

#16500
1aaa
0aaj

#16515
0aaa

#16530
1aaa

#16545
0aaa

#16560
1aaa

#16575
0aaa

#16590
1aaa

#16605
0aaa

#16620
1aaa
0aag

#16635
0aaa

#16650
1aaa

#16665
0aaa

#16680
1aaa
b11011100001111 aah
1aaj

#16695
0aaa

#16710
1aaa
1aag

#16725
0aaa

#16740
1aaa
0aaj

#16755
0aaa

#16770
1aaa

#16785
0aaa

#16800
1aaa

#16815
0aaa

#16830
1aaa

#16845
0aaa

#16860
1aaa
0aag

#16875
0aaa

#16890
1aaa

#16905
0aaa

#16920
1aaa
b11100010000000 aah
1aaj

#16935
0aaa

#16950
1aaa
1aag

#16965
0aaa

#16980
1aaa
0aaj

#16995
0aaa

#17010
1aaa

#17025
0aaa

#17040
1aaa

#17055
0aaa

#17070
1aaa

#17085
0aaa

#17100
1aaa
0aag

#17115
0aaa

#17130
1aaa

#17145
0aaa

#17160
1aaa
b11101000101010 aah
1aaj

#17175
0aaa

#17190
1aaa
1aag

#17205
0aaa

#17220
1aaa
0aaj

#17235
0aaa

#17250
1aaa

#17265
0aaa

#17280
1aaa

#17295
0aaa

#17310
1aaa

#17325
0aaa

#17340
1aaa
0aag

#17355
0aaa

#17370
1aaa

#17385
0aaa

#17400
1aaa
b11101110111101 aah
1aaj

#17415
0aaa

#17430
1aaa
1aag

#17445
0aaa

#17460
1aaa
0aaj

#17475
0aaa

#17490
1aaa

#17505
0aaa

#17520
1aaa

#17535
0aaa

#17550
1aaa

#17565
0aaa

#17580
1aaa
0aag

#17595
0aaa

#17610
1aaa

#17625
0aaa

#17640
1aaa

#17655
0aaa

#17670
1aaa
1aai

#17685
0aaa

#17700
1aaa
b1100110000100 aae
1aaf

#17715
0aaa

#17730
1aaa
0aai

#17745
0aaa

#17760
1aaa

#17775
0aaa

#17790
1aaa

#17805
0aaa

#17820
1aaa

#17835
0aaa

#17850
1aaa
0aaf

#17865
0aaa

#17880
1aaa

#17895
0aaa

#17910
1aaa
1aai

#17925
0aaa

#17940
1aaa
b110110001010 aae
1aaf

#17955
0aaa

#17970
1aaa
0aai

#17985
0aaa

#18000
1aaa

#18015
0aaa

#18030
1aaa

#18045
0aaa

#18060
1aaa

#18075
0aaa

#18090
1aaa
0aaf

#18105
0aaa

#18120
1aaa

#18135
0aaa

#18150
1aaa
1aai

#18165
0aaa

#18180
1aaa
b1000011100000 aae
1aaf

#18195
0aaa

#18210
1aaa
0aai

#18225
0aaa

#18240
1aaa

#18255
0aaa

#18270
1aaa

#18285
0aaa

#18300
1aaa

#18315
0aaa

#18330
1aaa
0aaf

#18345
0aaa

#18360
1aaa

#18375
0aaa

#18390
1aaa
1aai

#18405
0aaa

#18420
1aaa
b10000001001101 aae
1aaf

#18435
0aaa

#18450
1aaa
0aai

#18465
0aaa

#18480
1aaa

#18495
0aaa

#18510
1aaa

#18525
0aaa

#18540
1aaa

#18555
0aaa

#18570
1aaa
0aaf

#18585
0aaa

#18600
1aaa

#18615
0aaa

#18630
1aaa
1aai

#18645
0aaa

#18660
1aaa
b11001010011101 aae
1aaf

#18675
0aaa

#18690
1aaa
0aai

#18705
0aaa

#18720
1aaa

#18735
0aaa

#18750
1aaa

#18765
0aaa

#18780
1aaa

#18795
0aaa

#18810
1aaa
0aaf

#18825
0aaa

#18840
1aaa

#18855
0aaa

#18870
1aaa
1aai

#18885
0aaa

#18900
1aaa
b11110100011101 aae
1aaf

#18915
0aaa

#18930
1aaa
0aai

#18945
0aaa

#18960
1aaa

#18975
0aaa

#18990
1aaa

#19005
0aaa

#19020
1aaa

#19035
0aaa

#19050
1aaa
0aaf

#19065
0aaa

#19080
1aaa

#19095
0aaa

#19110
1aaa
1aai

#19125
0aaa

#19140
1aaa
b11100011010000 aae
1aaf

#19155
0aaa

#19170
1aaa
0aai

#19185
0aaa

#19200
1aaa

#19215
0aaa

#19230
1aaa

#19245
0aaa

#19260
1aaa

#19275
0aaa

#19290
1aaa
0aaf

#19305
0aaa

#19320
1aaa

#19335
0aaa

#19350
1aaa
1aai

#19365
0aaa

#19380
1aaa
b10010111011000 aae
1aaf

#19395
0aaa

#19410
1aaa
0aai

#19425
0aaa

#19440
1aaa

#19455
0aaa

#19470
1aaa

#19485
0aaa

#19500
1aaa

#19515
0aaa

#19530
1aaa
0aaf

#19545
0aaa

#19560
1aaa

#19575
0aaa

#19590
1aaa

#19605
0aaa

#19620
1aaa

#19635
0aaa

#19650
1aaa

#19665
0aaa

#19680
1aaa

#19695
0aaa

#19710
1aaa

#19725
0aaa

#19740
1aaa

#19755
0aaa

#19770
1aaa

#19785
0aaa

#19800
1aaa

#19815
0aaa

#19830
1aaa

#19845
0aaa

#19860
1aaa

#19875
0aaa

#19890
1aaa

#19905
0aaa

#19920
1aaa

#19935
0aaa

#19950
1aaa

#19965
0aaa

#19980
1aaa

#19995
0aaa

#20010
1aaa

#20025
0aaa

#20040
1aaa

#20055
0aaa

#20070
1aaa

#20085
0aaa

#20100
1aaa
b11110011010001 aah
1aaj

#20115
0aaa

#20130
1aaa
1aag

#20145
0aaa

#20160
1aaa
0aaj

#20175
0aaa

#20190
1aaa

#20205
0aaa

#20220
1aaa

#20235
0aaa

#20250
1aaa

#20265
0aaa

#20280
1aaa
0aag

#20295
0aaa

#20310
1aaa

#20325
0aaa

#20340
1aaa
b11110100010111 aah
1aaj

#20355
0aaa

#20370
1aaa
1aag

#20385
0aaa

#20400
1aaa
0aaj

#20415
0aaa

#20430
1aaa

#20445
0aaa

#20460
1aaa

#20475
0aaa

#20490
1aaa

#20505
0aaa

#20520
1aaa
0aag

#20535
0aaa

#20550
1aaa

#20565
0aaa

#20580
1aaa
b11110010000000 aah
1aaj

#20595
0aaa

#20610
1aaa
1aag

#20625
0aaa

#20640
1aaa
0aaj

#20655
0aaa

#20670
1aaa

#20685
0aaa

#20700
1aaa

#20715
0aaa

#20730
1aaa

#20745
0aaa

#20760
1aaa
0aag

#20775
0aaa

#20790
1aaa

#20805
0aaa

#20820
1aaa
b11101101000100 aah
1aaj

#20835
0aaa

#20850
1aaa
1aag

#20865
0aaa

#20880
1aaa
0aaj

