Examples/Buttons/DebounceWave.vcd
$date
     Apr 05, 2012       21:19:53
$end

$version
              SystemC 2.2.0 --- Jun 10 2011 10:40:45
$end

$timescale
     1 ns
$end

$scope module SystemC $end
$var wire    1  aaa  clk       $end
$var wire    1  aab  input1       $end
$var wire    1  aac  input2       $end
$var wire    1  aad  input3       $end
$var wire    1  aae  input4       $end
$var wire    1  aaf  input5       $end
$var wire    1  aag  output1       $end
$var wire    1  aah  output2       $end
$var wire    1  aai  output3       $end
$var wire    1  aaj  output4       $end
$var wire    1  aak  output5       $end
$upscope $end
$enddefinitions  $end

$comment
All initial values are dumped below at time 0 sec = 0 timescale units.
$end

$dumpvars
1aaa
1aab
1aac
1aad
1aae
1aaf
xaag
xaah
xaai
xaaj
xaak
$end

#500000
0aaa

#1000000
1aaa

#1001000
0aab
0aac
0aad
0aae
0aaf

#1500000
0aaa

#2000000
1aaa
1aab
1aac
1aad
1aae
1aaf

#2500000
0aaa

#3000000
1aaa

#3001000
0aab
0aac
0aad
0aae
0aaf

#3500000
0aaa

#4000000
1aaa
1aab
1aac
1aad
1aae
1aaf

#4500000
0aaa

#5000000
1aaa

#5500000
0aaa

#6000000
1aaa

#6500000
0aaa

#7000000
1aaa

#7500000
0aaa

#8000000
1aaa

#8500000
0aaa

#9000000
1aaa

#9500000
0aaa

#10000000
1aaa

#10500000
0aaa

#11000000
1aaa

#11500000
0aaa

#12000000
1aaa

#12500000
0aaa

#13000000
1aaa

#13500000
0aaa

#14000000
1aaa
0aab
0aac
0aad
0aae
0aaf

#14500000
0aaa

#15000000
1aaa

#15500000
0aaa

#16000000
1aaa

#16500000
0aaa

#17000000
1aaa
0aag
0aah
0aai
0aaj
0aak

#17500000
0aaa

#18000000
1aaa

#18500000
0aaa

#19000000
1aaa

#19500000
0aaa

#20000000
1aaa

#20500000
0aaa

#21000000
1aaa

#21500000
0aaa

#22000000
1aaa

#22500000
0aaa

#23000000
1aaa

#23500000
0aaa

#24000000
1aaa
1aab
1aac
1aad
1aae
1aaf

#24500000
0aaa

#25000000
1aaa

#25001000
0aab
0aac
0aad
0aae
0aaf

#25500000
0aaa

#26000000
1aaa
1aab
1aac
1aad
1aae
1aaf

#26500000
0aaa

#27000000
1aaa
1aag
1aah
1aai
1aaj
1aak

#27001000
0aab
0aac
0aad
0aae
0aaf

#27500000
0aaa

#28000000
1aaa
1aab
1aac
1aad
1aae
1aaf

#28500000
0aaa

#29000000
1aaa

#29500000
0aaa

#30000000
1aaa

#30500000
0aaa

#31000000
1aaa

#31500000
0aaa

#32000000
1aaa

#32500000
0aaa

#33000000
1aaa

#33500000
0aaa

#34000000
1aaa

#34500000
0aaa

#35000000
1aaa

#35500000
0aaa

#36000000
1aaa

#36500000
0aaa

#37000000
1aaa

#37500000
0aaa

#38000000
1aaa
0aab
0aac
0aad
0aae
0aaf

#38500000
0aaa

#39000000
1aaa

#39500000
0aaa

#40000000
1aaa

#40500000
0aaa

#41000000
1aaa
0aag
0aah
0aai
0aaj
0aak

#41500000
0aaa

#42000000
1aaa

#42500000
0aaa

#43000000
1aaa

#43500000
0aaa

#44000000
1aaa

#44500000
0aaa

#45000000
1aaa

#45500000
0aaa

#46000000
1aaa

#46500000
0aaa

#47000000
1aaa

#47500000
0aaa

#48000000
1aaa
1aab
1aac
1aad
1aae
1aaf

#48500000
0aaa

#49000000
1aaa

#49001000
0aab
0aac
0aad
0aae
0aaf

#49500000
0aaa

#50000000
1aaa
1aab
1aac
1aad
1aae
1aaf

#50500000
0aaa

#51000000
1aaa
1aag
1aah
1aai
1aaj
1aak

#51001000
0aab
0aac
0aad
0aae
0aaf

#51500000
0aaa

#52000000
1aaa
1aab
1aac
1aad
1aae
1aaf

#52500000
0aaa

#53000000
1aaa

#53500000
0aaa

#54000000
1aaa

#54500000
0aaa

#55000000
1aaa

#55500000
0aaa

#56000000
1aaa

#56500000
0aaa

#57000000
1aaa

#57500000
0aaa

#58000000
1aaa

#58500000
0aaa

#59000000
1aaa

#59500000
0aaa

#60000000
1aaa

#60500000
0aaa

#61000000
1aaa

#61500000
0aaa

#62000000
1aaa
0aab
0aac
0aad
0aae
0aaf

#62500000
0aaa

#63000000
1aaa

#63500000
0aaa

#64000000
1aaa

#64500000
0aaa

#65000000
1aaa
0aag
0aah
0aai
0aaj
0aak

#65500000
0aaa

#66000000
1aaa

#66500000
0aaa

#67000000
1aaa

#67500000
0aaa

#68000000
1aaa

#68500000
0aaa

#69000000
1aaa

#69500000
0aaa

#70000000
1aaa

#70500000
0aaa

#71000000
1aaa

#71500000
0aaa

#72000000
1aaa
1aab
1aac
1aad
1aae
1aaf

#72500000
0aaa

#73000000
1aaa

#73001000
0aab
0aac
0aad
0aae
0aaf

#73500000
0aaa

#74000000
1aaa
1aab
1aac
1aad
1aae
1aaf

#74500000
0aaa

#75000000
1aaa
1aag
1aah
1aai
1aaj
1aak

#75001000
0aab
0aac
0aad
0aae
0aaf

#75500000
0aaa

#76000000
1aaa
1aab
1aac
1aad
1aae
1aaf

#76500000
0aaa

#77000000
1aaa

#77500000
0aaa

#78000000
1aaa

#78500000
0aaa

#79000000
1aaa

#79500000
0aaa

#80000000
1aaa

#80500000
0aaa

#81000000
1aaa

#81500000
0aaa

#82000000
1aaa

#82500000
0aaa

#83000000
1aaa

#83500000
0aaa

#84000000
1aaa

#84500000
0aaa

#85000000
1aaa

#85500000
0aaa

#86000000
1aaa
0aab
0aac
0aad
0aae
0aaf

#86500000
0aaa

#87000000
1aaa

#87500000
0aaa

#88000000
1aaa

#88500000
0aaa

#89000000
1aaa
0aag
0aah
0aai
0aaj
0aak

#89500000
0aaa

#90000000
1aaa

#90500000
0aaa

#91000000
1aaa

#91500000
0aaa

#92000000
1aaa

#92500000
0aaa

#93000000
1aaa

#93500000
0aaa

#94000000
1aaa

#94500000
0aaa

#95000000
1aaa

#95500000
0aaa

#96000000
1aaa
1aab
1aac
1aad
1aae
1aaf

#96500000
0aaa

#97000000
1aaa

#97001000
0aab
0aac
0aad
0aae
0aaf

#97500000
0aaa

#98000000
1aaa
1aab
1aac
1aad
1aae
1aaf

#98500000
0aaa

#99000000
1aaa
1aag
1aah
1aai
1aaj
1aak

#99001000
0aab
0aac
0aad
0aae
0aaf

#99500000
0aaa

#100000000
1aaa
1aab
1aac
1aad
1aae
1aaf

#100500000
0aaa

#101000000
1aaa

#101500000
0aaa

#102000000
1aaa

#102500000
0aaa

#103000000
1aaa

#103500000
0aaa

#104000000
1aaa

#104500000
0aaa

#105000000
1aaa

#105500000
0aaa

#106000000
1aaa

#106500000
0aaa

#107000000
1aaa

#107500000
0aaa

#108000000
1aaa

#108500000
0aaa

#109000000
1aaa

#109500000
0aaa

#110000000
1aaa
0aab
0aac
0aad
0aae
0aaf

#110500000
0aaa

#111000000
1aaa

#111500000
0aaa

#112000000
1aaa

#112500000
0aaa

#113000000
1aaa
0aag
0aah
0aai
0aaj
0aak

#113500000
0aaa

#114000000
1aaa

#114500000
0aaa

#115000000
1aaa

#115500000
0aaa

#116000000
1aaa

#116500000
0aaa

#117000000
1aaa

#117500000
0aaa

#118000000
1aaa

#118500000
0aaa

#119000000
1aaa

#119500000
0aaa

#120000000
1aaa
1aab
1aac
1aad
1aae
1aaf

#120500000
0aaa

#121000000
1aaa

#121001000
0aab
0aac
0aad
0aae
0aaf

#121500000
0aaa

#122000000
1aaa
1aab
1aac
1aad
1aae
1aaf

#122500000
0aaa

#123000000
1aaa
1aag
1aah
1aai
1aaj
1aak

#123001000
0aab
0aac
0aad
0aae
0aaf

#123500000
0aaa

#124000000
1aaa
1aab
1aac
1aad
1aae
1aaf

#124500000
0aaa

#125000000
1aaa

#125500000
0aaa

#126000000
1aaa

#126500000
0aaa

#127000000
1aaa

#127500000
0aaa

#128000000
1aaa

#128500000
0aaa

#129000000
1aaa

#129500000
0aaa

#130000000
1aaa

#130500000
0aaa

#131000000
1aaa

#131500000
0aaa

#132000000
1aaa

#132500000
0aaa

#133000000
1aaa

#133500000
0aaa

#134000000
1aaa
0aab
0aac
0aad
0aae
0aaf

#134500000
0aaa

#135000000
1aaa

#135500000
0aaa

#136000000
1aaa

#136500000
0aaa

#137000000
1aaa
0aag
0aah
0aai
0aaj
0aak

#137500000
0aaa

#138000000
1aaa

#138500000
0aaa

#139000000
1aaa

#139500000
0aaa

#140000000
1aaa

#140500000
0aaa

#141000000
1aaa

#141500000
0aaa

#142000000
1aaa

#142500000
0aaa

#143000000
1aaa

#143500000
0aaa

#144000000
1aaa
1aab
1aac
1aad
1aae
1aaf

#144500000
0aaa

#145000000
1aaa

#145001000
0aab
0aac
0aad
0aae
0aaf

#145500000
0aaa

#146000000
1aaa
1aab
1aac
1aad
1aae
1aaf

#146500000
0aaa

#147000000
1aaa
1aag
1aah
1aai
1aaj
1aak

#147001000
0aab
0aac
0aad
0aae
0aaf

#147500000
0aaa

#148000000
1aaa
1aab
1aac
1aad
1aae
1aaf

#148500000
0aaa

#149000000
1aaa

#149500000
0aaa

#150000000
1aaa

#150500000
0aaa

#151000000
1aaa

#151500000
0aaa

#152000000
1aaa

#152500000
0aaa

#153000000
1aaa

#153500000
0aaa

#154000000
1aaa

#154500000
0aaa

#155000000
1aaa

#155500000
0aaa

#156000000
1aaa

#156500000
0aaa

#157000000
1aaa

#157500000
0aaa

#158000000
1aaa
0aab
0aac
0aad
0aae
0aaf

#158500000
0aaa

#159000000
1aaa

#159500000
0aaa

#160000000
1aaa

#160500000
0aaa

#161000000
1aaa
0aag
0aah
0aai
0aaj
0aak

#161500000
0aaa

#162000000
1aaa

#162500000
0aaa

#163000000
1aaa

#163500000
0aaa

#164000000
1aaa

#164500000
0aaa

#165000000
1aaa

#165500000
0aaa

#166000000
1aaa

#166500000
0aaa

#167000000
1aaa

#167500000
0aaa

#168000000
1aaa
1aab
1aac
1aad
1aae
1aaf

#168500000
0aaa

#169000000
1aaa

#169001000
0aab
0aac
0aad
0aae
0aaf

#169500000
0aaa

#170000000
1aaa
1aab
1aac
1aad
1aae
1aaf

#170500000
0aaa

#171000000
1aaa
1aag
1aah
1aai
1aaj
1aak

#171001000
0aab
0aac
0aad
0aae
0aaf

#171500000
0aaa

#172000000
1aaa
1aab
1aac
1aad
1aae
1aaf

#172500000
0aaa

#173000000
1aaa

#173500000
0aaa

#174000000
1aaa

#174500000
0aaa

#175000000
1aaa

#175500000
0aaa

#176000000
1aaa

#176500000
0aaa

#177000000
1aaa

#177500000
0aaa

#178000000
1aaa

#178500000
0aaa

#179000000
1aaa

#179500000
0aaa

#180000000
1aaa

#180500000
0aaa

#181000000
1aaa

#181500000
0aaa

#182000000
1aaa
0aab
0aac
0aad
0aae
0aaf

#182500000
0aaa

#183000000
1aaa

#183500000
0aaa

#184000000
1aaa

#184500000
0aaa

#185000000
1aaa
0aag
0aah
0aai
0aaj
0aak

#185500000
0aaa

#186000000
1aaa

#186500000
0aaa

#187000000
1aaa

#187500000
0aaa

#188000000
1aaa

#188500000
0aaa

#189000000
1aaa

#189500000
0aaa

#190000000
1aaa

#190500000
0aaa

#191000000
1aaa

#191500000
0aaa

#192000000
1aaa
1aab
1aac
1aad
1aae
1aaf

#192500000
0aaa

#193000000
1aaa

#193001000
0aab
0aac
0aad
0aae
0aaf

#193500000
0aaa

#194000000
1aaa
1aab
1aac
1aad
1aae
1aaf

#194500000
0aaa

#195000000
1aaa
1aag
1aah
1aai
1aaj
1aak

#195001000
0aab
0aac
0aad
0aae
0aaf

#195500000
0aaa

#196000000
1aaa
1aab
1aac
1aad
1aae
1aaf

#196500000
0aaa

#197000000
1aaa

#197500000
0aaa

#198000000
1aaa

#198500000
0aaa

#199000000
1aaa

#199500000
0aaa

#200000000
1aaa

#200500000
0aaa

#201000000
1aaa

#201500000
0aaa

#202000000
1aaa

#202500000
0aaa

#203000000
1aaa

#203500000
0aaa

#204000000
1aaa

#204500000
0aaa

#205000000
1aaa

#205500000
0aaa

#206000000
1aaa
0aab
0aac
0aad
0aae
0aaf

#206500000
0aaa

#207000000
1aaa

#207500000
0aaa

#208000000
1aaa

#208500000
0aaa

#209000000
1aaa
0aag
0aah
0aai
0aaj
0aak

#209500000
0aaa

#210000000
1aaa

#210500000
0aaa

#211000000
1aaa

#211500000
0aaa

#212000000
1aaa

#212500000
0aaa

#213000000
1aaa

#213500000
0aaa

#214000000
1aaa

#214500000
0aaa

#215000000
1aaa

#215500000
0aaa

#216000000
1aaa
1aab
1aac
1aad
1aae
1aaf

#216500000
0aaa

#217000000
1aaa

#217001000
0aab
0aac
0aad
0aae
0aaf

#217500000
0aaa

#218000000
1aaa
1aab
1aac
1aad
1aae
1aaf

#218500000
0aaa

#219000000
1aaa
1aag
1aah
1aai
1aaj
1aak

#219001000
0aab
0aac
0aad
0aae
0aaf

#219500000
0aaa

#220000000
1aaa
1aab
1aac
1aad
1aae
1aaf

#220500000
0aaa

#221000000
1aaa

#221500000
0aaa

#222000000
1aaa

#222500000
0aaa

#223000000
1aaa

#223500000
0aaa

#224000000
1aaa

#224500000
0aaa

#225000000
1aaa

#225500000
0aaa

#226000000
1aaa

#226500000
0aaa

#227000000
1aaa

#227500000
0aaa

#228000000
1aaa

#228500000
0aaa

#229000000
1aaa

#229500000
0aaa

#230000000
1aaa
0aab
0aac
0aad
0aae
0aaf

#230500000
0aaa

#231000000
1aaa

#231500000
0aaa

#232000000
1aaa

#232500000
0aaa

#233000000
1aaa
0aag
0aah
0aai
0aaj
0aak

