Ex_2_3_3/streamingWave.vcd
$date
     May 07, 2014       09:28:09
$end

$version
              SystemC 2.2.0 --- Apr 22 2014 04:22:38
$end

$timescale
     1 ns
$end

$scope module SystemC $end
$var wire    1  aaa  clock       $end
$var wire    1  aab  reset       $end
$var wire    1  aac  ready       $end
$var wire    1  aad  valid       $end
$var wire   16  aae  data [15:0]  $end
$var wire    2  aaf  error [1:0]  $end
$var wire    4  aag  channel [3:0]  $end
$upscope $end
$enddefinitions  $end

$comment
All initial values are dumped below at time 0 sec = 0 timescale units.
$end

$dumpvars
1aaa
0aab
0aac
0aad
b0 aae
b0 aaf
b0 aag
$end

#10
0aaa
1aac

#20
1aaa
1aad
b1 aae

#30
0aaa

#40
1aaa
b10 aae

#50
0aaa

#60
1aaa
b11 aae

#70
0aaa

#80
1aaa
b100 aae

#90
0aaa

#100
1aaa
b101 aae

#110
0aaa

#120
1aaa
b110 aae

#130
0aaa

#140
1aaa
b111 aae

#150
0aaa

#160
1aaa
b1000 aae

#170
0aaa

#180
1aaa
b1001 aae

#190
0aaa

#200
1aaa
b1010 aae

#210
0aaa

#220
1aaa
b1011 aae

#230
0aaa
0aac

#240
1aaa
0aad

#250
0aaa

#260
1aaa

#270
0aaa
1aac

#280
1aaa
1aad
b1100 aae

#290
0aaa

#300
1aaa
b1101 aae

#310
0aaa

#320
1aaa
b1110 aae

#330
0aaa

#340
1aaa
b1111 aae

#350
0aaa

#360
1aaa
b10000 aae

#370
0aaa

#380
1aaa
b10001 aae

#390
0aaa

#400
1aaa
b10010 aae

#410
0aaa

#420
1aaa
b10011 aae

#430
0aaa

#440
1aaa
b10100 aae

#450
0aaa

#460
1aaa
b10101 aae

#470
0aaa

#480
1aaa
b10110 aae

#490
0aaa
0aac

#500
1aaa
0aad

#510
0aaa

#520
1aaa

#530
0aaa
1aac

#540
1aaa
1aad
b10111 aae

#550
0aaa

#560
1aaa
b11000 aae

#570
0aaa

#580
1aaa
b11001 aae

#590
0aaa

#600
1aaa
b11010 aae

#610
0aaa

#620
1aaa
b11011 aae

#630
0aaa

#640
1aaa
b11100 aae

#650
0aaa

#660
1aaa
b11101 aae

#670
0aaa

#680
1aaa
b11110 aae

#690
0aaa

#700
1aaa
b11111 aae

#710
0aaa

#720
1aaa
b100000 aae

#730
0aaa

#740
1aaa
b100001 aae

#750
0aaa
0aac

#760
1aaa
0aad

#770
0aaa

#780
1aaa

#790
0aaa
1aac

#800
1aaa
1aad
b100010 aae

#810
0aaa

#820
1aaa
b100011 aae

#830
0aaa

#840
1aaa
b100100 aae

#850
0aaa

#860
1aaa
b100101 aae

#870
0aaa

#880
1aaa
b100110 aae

#890
0aaa

#900
1aaa
b100111 aae

#910
0aaa

#920
1aaa
b101000 aae

#930
0aaa

#940
1aaa
b101001 aae

#950
0aaa

#960
1aaa
b101010 aae

#970
0aaa

#980
1aaa
b101011 aae

