Examples/ADCInput/ADCInputWave.vcd
$date
     Apr 05, 2012       21:02:37
$end

$version
              SystemC 2.2.0 --- Jun 10 2011 10:40:45
$end

$timescale
     1 ps
$end

$scope module SystemC $end
$var wire    1  aaa  clk       $end
$var wire    1  aab  busy       $end
$var wire   18  aac  inData [17:0]  $end
$var wire    1  aad  read       $end
$var wire    1  aae  ready       $end
$var wire   18  aaf  outData [17:0]  $end
$upscope $end
$enddefinitions  $end

$comment
All initial values are dumped below at time 0 sec = 0 timescale units.
$end

$dumpvars
1aaa
1aab
b0 aac
0aad
0aae
b0 aaf
$end

#100000
0aaa
0aab
1aae

#200000
1aaa
1aab
b1 aac

#300000
0aaa
0aab

#400000
1aaa
1aab
b10 aac

#500000
0aaa
0aab
1aad
b1 aaf

#521000
0aad

#541000
1aad
0aae
b10 aaf

#562000
0aad

#600000
1aaa
1aab
b11 aac

#700000
0aaa
0aab
1aae

#800000
1aaa
1aab
b100 aac

#900000
0aaa
0aab

#982000
1aad
b11 aaf

#1000000
1aaa
1aab
b101 aac

#1003000
0aad

#1023000
1aad
b100 aaf

#1044000
0aad

#1064000
1aad
0aae
b101 aaf

#1085000
0aad

#1100000
0aaa
0aab

#1200000
1aaa
1aab
b110 aac

#1300000
0aaa
0aab
1aae

#1400000
1aaa
1aab
b111 aac

#1500000
0aaa
0aab

#1505000
1aad
b110 aaf

#1526000
0aad

#1546000
1aad
0aae
b111 aaf

#1567000
0aad

#1600000
1aaa
1aab
b1000 aac

#1700000
0aaa
0aab
1aae

#1800000
1aaa
1aab
b1001 aac

#1900000
0aaa
0aab

#1987000
1aad
b1000 aaf

#2000000
1aaa
1aab
b1010 aac

#2008000
0aad

#2028000
1aad
b1001 aaf

#2049000
0aad

#2069000
1aad
0aae
b1010 aaf

#2090000
0aad

#2100000
0aaa
0aab

#2200000
1aaa
1aab
b1011 aac

#2300000
0aaa
0aab
1aae

#2400000
1aaa
1aab
b1100 aac

#2500000
0aaa
0aab

#2510000
1aad
b1011 aaf

#2531000
0aad

#2551000
1aad
0aae
b1100 aaf

#2572000
0aad

#2600000
1aaa
1aab
b1101 aac

#2700000
0aaa
0aab
1aae

#2800000
1aaa
1aab
b1110 aac

#2900000
0aaa
0aab

#2992000
1aad
b1101 aaf

#3000000
1aaa
1aab
b1111 aac

#3013000
0aad

#3033000
1aad
b1110 aaf

#3054000
0aad

#3074000
1aad
0aae
b1111 aaf

#3095000
0aad

#3100000
0aaa
0aab

#3200000
1aaa
1aab
b10000 aac

#3300000
0aaa
0aab
1aae

#3400000
1aaa
1aab
b10001 aac

#3500000
0aaa
0aab

#3515000
1aad
b10000 aaf

#3536000
0aad

#3556000
1aad
0aae
b10001 aaf

#3577000
0aad

#3600000
1aaa
1aab
b10010 aac

#3700000
0aaa
0aab
1aae

#3800000
1aaa
1aab
b10011 aac

#3900000
0aaa
0aab

#3997000
1aad
b10010 aaf

#4000000
1aaa
1aab
b10100 aac

#4018000
0aad

#4038000
1aad
b10011 aaf

#4059000
0aad

#4079000
1aad
0aae
b10100 aaf

#4100000
0aaa
0aab
0aad

#4200000
1aaa
1aab
b10101 aac

#4300000
0aaa
0aab
1aae

#4400000
1aaa
1aab
b10110 aac

#4500000
0aaa
0aab

#4520000
1aad
b10101 aaf

#4541000
0aad

#4561000
1aad
0aae
b10110 aaf

#4582000
0aad

#4600000
1aaa
1aab
b10111 aac

#4700000
0aaa
0aab
1aae

#4800000
1aaa
1aab
b11000 aac

#4900000
0aaa
0aab

#5000000
1aaa
1aab
b11001 aac

#5002000
1aad
b10111 aaf

#5023000
0aad

#5043000
1aad
b11000 aaf

#5064000
0aad

#5084000
1aad
0aae
b11001 aaf

#5100000
0aaa
0aab

#5105000
0aad

#5200000
1aaa
1aab
b11010 aac

#5300000
0aaa
0aab
1aae

#5400000
1aaa
1aab
b11011 aac

#5500000
0aaa
0aab

#5525000
1aad
b11010 aaf

#5546000
0aad

#5566000
1aad
0aae
b11011 aaf

#5587000
0aad

#5600000
1aaa
1aab
b11100 aac

#5700000
0aaa
0aab
1aae

#5800000
1aaa
1aab
b11101 aac

#5900000
0aaa
0aab

#6000000
1aaa
1aab
b11110 aac

#6007000
1aad
b11100 aaf

#6028000
0aad

#6048000
1aad
b11101 aaf

#6069000
0aad

#6089000
1aad
0aae
b11110 aaf

#6100000
0aaa
0aab

#6110000
0aad

#6200000
1aaa
1aab
b11111 aac

#6300000
0aaa
0aab
1aae

#6400000
1aaa
1aab
b100000 aac

#6500000
0aaa
0aab

#6530000
1aad
b11111 aaf

#6551000
0aad

#6571000
1aad
0aae
b100000 aaf

#6592000
0aad

#6600000
1aaa
1aab
b100001 aac

#6700000
0aaa
0aab
1aae

#6800000
1aaa
1aab
b100010 aac

#6900000
0aaa
0aab

#7000000
1aaa
1aab
b100011 aac

#7012000
1aad
b100001 aaf

#7033000
0aad

#7053000
1aad
b100010 aaf

#7074000
0aad

#7094000
1aad
0aae
b100011 aaf

#7100000
0aaa
0aab

#7115000
0aad

#7200000
1aaa
1aab
b100100 aac

#7300000
0aaa
0aab
1aae

#7400000
1aaa
1aab
b100101 aac

#7500000
0aaa
0aab

#7535000
1aad
b100100 aaf

#7556000
0aad

#7576000
1aad
0aae
b100101 aaf

#7597000
0aad

#7600000
1aaa
1aab
b100110 aac

#7700000
0aaa
0aab
1aae

#7800000
1aaa
1aab
b100111 aac

#7900000
0aaa
0aab

#8000000
1aaa
1aab
b101000 aac

#8017000
1aad
b100110 aaf

#8038000
0aad

#8058000
1aad
b100111 aaf

#8079000
0aad

#8099000
1aad
0aae
b101000 aaf

#8100000
0aaa
0aab

#8120000
0aad

#8200000
1aaa
1aab
b101001 aac

#8300000
0aaa
0aab
1aae

#8400000
1aaa
1aab
b101010 aac

#8500000
0aaa
0aab

#8540000
1aad
b101001 aaf

#8561000
0aad

#8581000
1aad
0aae
b101010 aaf

#8600000
1aaa
1aab
b101011 aac

#8602000
0aad

#8700000
0aaa
0aab
1aae

#8800000
1aaa
1aab
b101100 aac

#8900000
0aaa
0aab

#9000000
1aaa
1aab
b101101 aac

#9022000
1aad
b101011 aaf

#9043000
0aad

#9063000
1aad
b101100 aaf

#9084000
0aad

#9100000
0aaa
0aab

#9104000
1aad
0aae
b101101 aaf

#9125000
0aad

#9200000
1aaa
1aab
b101110 aac

#9300000
0aaa
0aab
1aae

#9400000
1aaa
1aab
b101111 aac

#9500000
0aaa
0aab

#9545000
1aad
b101110 aaf

#9566000
0aad

#9586000
1aad
0aae
b101111 aaf

#9600000
1aaa
1aab
b110000 aac

#9607000
0aad

#9700000
0aaa
0aab
1aae

#9800000
1aaa
1aab
b110001 aac

#9900000
0aaa
0aab

#10000000
1aaa
1aab
b110010 aac

#10027000
1aad
b110000 aaf

#10048000
0aad

#10068000
1aad
b110001 aaf

#10089000
0aad

#10100000
0aaa
0aab

#10109000
1aad
0aae
b110010 aaf

#10130000
0aad

#10200000
1aaa
1aab
b110011 aac

#10300000
0aaa
0aab
1aae

#10400000
1aaa
1aab
b110100 aac

#10500000
0aaa
0aab

#10550000
1aad
b110011 aaf

#10571000
0aad

#10591000
1aad
0aae
b110100 aaf

#10600000
1aaa
1aab
b110101 aac

#10612000
0aad

#10700000
0aaa
0aab
1aae

#10800000
1aaa
1aab
b110110 aac

#10900000
0aaa
0aab

#11000000
1aaa
1aab
b110111 aac

#11032000
1aad
b110101 aaf

#11053000
0aad

#11073000
1aad
b110110 aaf

#11094000
0aad

#11100000
0aaa
0aab

#11114000
1aad
0aae
b110111 aaf

#11135000
0aad

#11200000
1aaa
1aab
b111000 aac

#11300000
0aaa
0aab
1aae

#11400000
1aaa
1aab
b111001 aac

#11500000
0aaa
0aab

#11555000
1aad
b111000 aaf

#11576000
0aad

#11596000
1aad
0aae
b111001 aaf

#11600000
1aaa
1aab
b111010 aac

#11617000
0aad

#11700000
0aaa
0aab
1aae

#11800000
1aaa
1aab
b111011 aac

#11900000
0aaa
0aab

#12000000
1aaa
1aab
b111100 aac

#12037000
1aad
b111010 aaf

#12058000
0aad

#12078000
1aad
b111011 aaf

#12099000
0aad

#12100000
0aaa
0aab

#12119000
1aad
0aae
b111100 aaf

#12140000
0aad

#12200000
1aaa
1aab
b111101 aac

#12300000
0aaa
0aab
1aae

#12400000
1aaa
1aab
b111110 aac

#12500000
0aaa
0aab

#12560000
1aad
b111101 aaf

#12581000
0aad

#12600000
1aaa
1aab
b111111 aac

#12601000
1aad
b111110 aaf

#12622000
0aad

#12642000
1aad
0aae
b111111 aaf

#12663000
0aad

#12700000
0aaa
0aab

#12800000
1aaa
1aab
b1000000 aac

#12900000
0aaa
0aab
1aae

#13000000
1aaa
1aab
b1000001 aac

#13083000
1aad
b1000000 aaf

#13100000
0aaa
0aab
0aae
b1000001 aaf

#13104000
0aad

#13200000
1aaa
1aab
b1000010 aac

#13300000
0aaa
0aab
1aae

#13400000
1aaa
1aab
b1000011 aac

#13500000
0aaa
0aab

#13524000
1aad
b1000010 aaf

#13545000
0aad

#13565000
1aad
0aae
b1000011 aaf

#13586000
0aad

#13600000
1aaa
1aab
b1000100 aac

#13700000
0aaa
0aab
1aae

#13800000
1aaa
1aab
b1000101 aac

#13900000
0aaa
0aab

#14000000
1aaa
1aab
b1000110 aac

#14006000
1aad
b1000100 aaf

#14027000
0aad

#14047000
1aad
b1000101 aaf

#14068000
0aad

#14088000
1aad
0aae
b1000110 aaf

#14100000
0aaa
0aab

#14109000
0aad

#14200000
1aaa
1aab
b1000111 aac

#14300000
0aaa
0aab
1aae

#14400000
1aaa
1aab
b1001000 aac

#14500000
0aaa
0aab

#14529000
1aad
b1000111 aaf

#14550000
0aad

#14570000
1aad
0aae
b1001000 aaf

#14591000
0aad

#14600000
1aaa
1aab
b1001001 aac

#14700000
0aaa
0aab
1aae

#14800000
1aaa
1aab
b1001010 aac

#14900000
0aaa
0aab

#15000000
1aaa
1aab
b1001011 aac

#15011000
1aad
b1001001 aaf

#15032000
0aad

#15052000
1aad
b1001010 aaf

#15073000
0aad

#15093000
1aad
0aae
b1001011 aaf

#15100000
0aaa
0aab

#15114000
0aad

#15200000
1aaa
1aab
b1001100 aac

#15300000
0aaa
0aab
1aae

#15400000
1aaa
1aab
b1001101 aac

#15500000
0aaa
0aab

#15534000
1aad
b1001100 aaf

#15555000
0aad

#15575000
1aad
0aae
b1001101 aaf

#15596000
0aad

#15600000
1aaa
1aab
b1001110 aac

#15700000
0aaa
0aab
1aae

#15800000
1aaa
1aab
b1001111 aac

#15900000
0aaa
0aab

#16000000
1aaa
1aab
b1010000 aac

#16016000
1aad
b1001110 aaf

#16037000
0aad

#16057000
1aad
b1001111 aaf

#16078000
0aad

#16098000
1aad
0aae
b1010000 aaf

#16100000
0aaa
0aab

#16119000
0aad

#16200000
1aaa
1aab
b1010001 aac

#16300000
0aaa
0aab
1aae

#16400000
1aaa
1aab
b1010010 aac

#16500000
0aaa
0aab

#16539000
1aad
b1010001 aaf

#16560000
0aad

#16580000
1aad
0aae
b1010010 aaf

#16600000
1aaa
1aab
b1010011 aac

#16601000
0aad

#16700000
0aaa
0aab
1aae

#16800000
1aaa
1aab
b1010100 aac

#16900000
0aaa
0aab

#17000000
1aaa
1aab
b1010101 aac

#17021000
1aad
b1010011 aaf

#17042000
0aad

#17062000
1aad
b1010100 aaf

#17083000
0aad

#17100000
0aaa
0aab

#17103000
1aad
0aae
b1010101 aaf

#17124000
0aad

#17200000
1aaa
1aab
b1010110 aac

#17300000
0aaa
0aab
1aae

#17400000
1aaa
1aab
b1010111 aac

#17500000
0aaa
0aab

#17544000
1aad
b1010110 aaf

#17565000
0aad

#17585000
1aad
0aae
b1010111 aaf

#17600000
1aaa
1aab
b1011000 aac

#17606000
0aad

#17700000
0aaa
0aab
1aae

#17800000
1aaa
1aab
b1011001 aac

#17900000
0aaa
0aab

#18000000
1aaa
1aab
b1011010 aac

#18026000
1aad
b1011000 aaf

#18047000
0aad

#18067000
1aad
b1011001 aaf

#18088000
0aad

#18100000
0aaa
0aab

#18108000
1aad
0aae
b1011010 aaf

#18129000
0aad

#18200000
1aaa
1aab
b1011011 aac

#18300000
0aaa
0aab
1aae

#18400000
1aaa
1aab
b1011100 aac

#18500000
0aaa
0aab

#18549000
1aad
b1011011 aaf

#18570000
0aad

#18590000
1aad
0aae
b1011100 aaf

#18600000
1aaa
1aab
b1011101 aac

#18611000
0aad

#18700000
0aaa
0aab
1aae

#18800000
1aaa
1aab
b1011110 aac

#18900000
0aaa
0aab

#19000000
1aaa
1aab
b1011111 aac

#19031000
1aad
b1011101 aaf

#19052000
0aad

#19072000
1aad
b1011110 aaf

#19093000
0aad

#19100000
0aaa
0aab

#19113000
1aad
0aae
b1011111 aaf

#19134000
0aad

#19200000
1aaa
1aab
b1100000 aac

#19300000
0aaa
0aab
1aae

#19400000
1aaa
1aab
b1100001 aac

#19500000
0aaa
0aab

#19554000
1aad
b1100000 aaf

#19575000
0aad

#19595000
1aad
0aae
b1100001 aaf

#19600000
1aaa
1aab
b1100010 aac

#19616000
0aad

#19700000
0aaa
0aab
1aae

#19800000
1aaa
1aab
b1100011 aac

#19900000
0aaa
0aab

#20000000
1aaa
1aab
b1100100 aac

#20036000
1aad
b1100010 aaf

#20057000
0aad

#20077000
1aad
b1100011 aaf

#20098000
0aad

#20100000
0aaa
0aab

#20118000
1aad
0aae
b1100100 aaf

#20139000
0aad

#20200000
1aaa
1aab
b1100101 aac

#20300000
0aaa
0aab
1aae

#20400000
1aaa
1aab
b1100110 aac

#20500000
0aaa
0aab

#20559000
1aad
b1100101 aaf

#20580000
0aad

#20600000
1aaa
1aab
b1100111 aac
1aad
0aae
b1100110 aaf

#20621000
0aad

#20700000
0aaa
0aab
1aae

#20800000
1aaa
1aab
b1101000 aac

#20900000
0aaa
0aab

#21000000
1aaa
1aab
b1101001 aac

#21041000
1aad
b1100111 aaf

#21062000
0aad

#21082000
1aad
b1101000 aaf

#21100000
0aaa
0aab
0aae
b1101001 aaf

#21103000
0aad

#21200000
1aaa
1aab
b1101010 aac

#21300000
0aaa
0aab
1aae

#21400000
1aaa
1aab
b1101011 aac

#21500000
0aaa
0aab

#21523000
1aad
b1101010 aaf

#21544000
0aad

#21564000
1aad
0aae
b1101011 aaf

#21585000
0aad

#21600000
1aaa
1aab
b1101100 aac

#21700000
0aaa
0aab
1aae

#21800000
1aaa
1aab
b1101101 aac

#21900000
0aaa
0aab

#22000000
1aaa
1aab
b1101110 aac

#22005000
1aad
b1101100 aaf

#22026000
0aad

#22046000
1aad
b1101101 aaf

#22067000
0aad

#22087000
1aad
0aae
b1101110 aaf

#22100000
0aaa
0aab

#22108000
0aad

#22200000
1aaa
1aab
b1101111 aac

#22300000
0aaa
0aab
1aae

#22400000
1aaa
1aab
b1110000 aac

#22500000
0aaa
0aab

#22528000
1aad
b1101111 aaf

#22549000
0aad

#22569000
1aad
0aae
b1110000 aaf

#22590000
0aad

#22600000
1aaa
1aab
b1110001 aac

#22700000
0aaa
0aab
1aae

#22800000
1aaa
1aab
b1110010 aac

#22900000
0aaa
0aab

#23000000
1aaa
1aab
b1110011 aac

#23010000
1aad
b1110001 aaf

#23031000
0aad

#23051000
1aad
b1110010 aaf

#23072000
0aad

#23092000
1aad
0aae
b1110011 aaf

#23100000
0aaa
0aab

#23113000
0aad

#23200000
1aaa
1aab
b1110100 aac

#23300000
0aaa
0aab
1aae

#23400000
1aaa
1aab
b1110101 aac

#23500000
0aaa
0aab

#23533000
1aad
b1110100 aaf

#23554000
0aad

#23574000
1aad
0aae
b1110101 aaf

#23595000
0aad

#23600000
1aaa
1aab
b1110110 aac

#23700000
0aaa
0aab
1aae

#23800000
1aaa
1aab
b1110111 aac

#23900000
0aaa
0aab

#24000000
1aaa
1aab
b1111000 aac

#24015000
1aad
b1110110 aaf

#24036000
0aad

#24056000
1aad
b1110111 aaf

#24077000
0aad

#24097000
1aad
0aae
b1111000 aaf

#24100000
0aaa
0aab

#24118000
0aad

#24200000
1aaa
1aab
b1111001 aac

#24300000
0aaa
0aab
1aae

#24400000
1aaa
1aab
b1111010 aac

#24500000
0aaa
0aab

#24538000
1aad
b1111001 aaf

#24559000
0aad

#24579000
1aad
0aae
b1111010 aaf

#24600000
1aaa
1aab
b1111011 aac
0aad

#24700000
0aaa
0aab
1aae

#24800000
1aaa
1aab
b1111100 aac

#24900000
0aaa
0aab

#25000000
1aaa
1aab
b1111101 aac

#25020000
1aad
b1111011 aaf

#25041000
0aad

#25061000
1aad
b1111100 aaf

#25082000
0aad

#25100000
0aaa
0aab

#25102000
1aad
0aae
b1111101 aaf

#25123000
0aad

#25200000
1aaa
1aab
b1111110 aac

#25300000
0aaa
0aab
1aae

#25400000
1aaa
1aab
b1111111 aac

#25500000
0aaa
0aab

#25543000
1aad
b1111110 aaf

#25564000
0aad

#25584000
1aad
0aae
b1111111 aaf

#25600000
1aaa
1aab
b10000000 aac

#25605000
0aad

#25700000
0aaa
0aab
1aae

#25800000
1aaa
1aab
b10000001 aac

#25900000
0aaa
0aab

#26000000
1aaa
1aab
b10000010 aac

#26025000
1aad
b10000000 aaf

#26046000
0aad

#26066000
1aad
b10000001 aaf

#26087000
0aad

#26100000
0aaa
0aab

#26107000
1aad
0aae
b10000010 aaf

#26128000
0aad

#26200000
1aaa
1aab
b10000011 aac

#26300000
0aaa
0aab
1aae

#26400000
1aaa
1aab
b10000100 aac

#26500000
0aaa
0aab

#26548000
1aad
b10000011 aaf

#26569000
0aad

#26589000
1aad
0aae
b10000100 aaf

#26600000
1aaa
1aab
b10000101 aac

#26610000
0aad

#26700000
0aaa
0aab
1aae

#26800000
1aaa
1aab
b10000110 aac

#26900000
0aaa
0aab

#27000000
1aaa
1aab
b10000111 aac

#27030000
1aad
b10000101 aaf

#27051000
0aad

#27071000
1aad
b10000110 aaf

#27092000
0aad

#27100000
0aaa
0aab

#27112000
1aad
0aae
b10000111 aaf

#27133000
0aad

#27200000
1aaa
1aab
b10001000 aac

#27300000
0aaa
0aab
1aae

#27400000
1aaa
1aab
b10001001 aac

#27500000
0aaa
0aab

#27553000
1aad
b10001000 aaf

#27574000
0aad

#27594000
1aad
0aae
b10001001 aaf

#27600000
1aaa
1aab
b10001010 aac

#27615000
0aad

#27700000
0aaa
0aab
1aae

#27800000
1aaa
1aab
b10001011 aac

#27900000
0aaa
0aab

#28000000
1aaa
1aab
b10001100 aac

#28035000
1aad
b10001010 aaf

#28056000
0aad

#28076000
1aad
b10001011 aaf

#28097000
0aad

#28100000
0aaa
0aab

#28117000
1aad
0aae
b10001100 aaf

#28138000
0aad

#28200000
1aaa
1aab
b10001101 aac

#28300000
0aaa
0aab
1aae

#28400000
1aaa
1aab
b10001110 aac

#28500000
0aaa
0aab

#28558000
1aad
b10001101 aaf

#28579000
0aad

#28599000
1aad
0aae
b10001110 aaf

#28600000
1aaa
1aab
b10001111 aac

#28620000
0aad

#28700000
0aaa
0aab
1aae

#28800000
1aaa
1aab
b10010000 aac

#28900000
0aaa
0aab

#29000000
1aaa
1aab
b10010001 aac

#29040000
1aad
b10001111 aaf

#29061000
0aad

#29081000
1aad
b10010000 aaf

#29100000
0aaa
0aab
0aae
b10010001 aaf

#29102000
0aad

#29200000
1aaa
1aab
b10010010 aac

#29300000
0aaa
0aab
1aae

#29400000
1aaa
1aab
b10010011 aac

#29500000
0aaa
0aab

#29522000
1aad
b10010010 aaf

#29543000
0aad

#29563000
1aad
0aae
b10010011 aaf

#29584000
0aad

#29600000
1aaa
1aab
b10010100 aac

#29700000
0aaa
0aab
1aae

#29800000
1aaa
1aab
b10010101 aac

#29900000
0aaa
0aab

#30000000
1aaa
1aab
b10010110 aac

#30004000
1aad
b10010100 aaf

#30025000
0aad

#30045000
1aad
b10010101 aaf

#30066000
0aad

#30086000
1aad
0aae
b10010110 aaf

#30100000
0aaa
0aab

#30107000
0aad

#30200000
1aaa
1aab
b10010111 aac

#30300000
0aaa
0aab
1aae

#30400000
1aaa
1aab
b10011000 aac

#30500000
0aaa
0aab

#30527000
1aad
b10010111 aaf

#30548000
0aad

#30568000
1aad
0aae
b10011000 aaf

#30589000
0aad

#30600000
1aaa
1aab
b10011001 aac

#30700000
0aaa
0aab
1aae

#30800000
1aaa
1aab
b10011010 aac

#30900000
0aaa
0aab

#31000000
1aaa
1aab
b10011011 aac

#31009000
1aad
b10011001 aaf

#31030000
0aad

#31050000
1aad
b10011010 aaf

#31071000
0aad

#31091000
1aad
0aae
b10011011 aaf

#31100000
0aaa
0aab

#31112000
0aad

#31200000
1aaa
1aab
b10011100 aac

#31300000
0aaa
0aab
1aae

#31400000
1aaa
1aab
b10011101 aac

#31500000
0aaa
0aab

#31532000
1aad
b10011100 aaf

#31553000
0aad

#31573000
1aad
0aae
b10011101 aaf

#31594000
0aad

#31600000
1aaa
1aab
b10011110 aac

#31700000
0aaa
0aab
1aae

#31800000
1aaa
1aab
b10011111 aac

#31900000
0aaa
0aab

#32000000
1aaa
1aab
b10100000 aac

#32014000
1aad
b10011110 aaf

#32035000
0aad

#32055000
1aad
b10011111 aaf

#32076000
0aad

#32096000
1aad
0aae
b10100000 aaf

#32100000
0aaa
0aab

#32117000
0aad

#32200000
1aaa
1aab
b10100001 aac

#32300000
0aaa
0aab
1aae

#32400000
1aaa
1aab
b10100010 aac

#32500000
0aaa
0aab

#32537000
1aad
b10100001 aaf

#32558000
0aad

#32578000
1aad
0aae
b10100010 aaf

#32599000
0aad

#32600000
1aaa
1aab
b10100011 aac

#32700000
0aaa
0aab
1aae

#32800000
1aaa
1aab
b10100100 aac

#32900000
0aaa
0aab

#33000000
1aaa
1aab
b10100101 aac

#33019000
1aad
b10100011 aaf

#33040000
0aad

#33060000
1aad
b10100100 aaf

#33081000
0aad

#33100000
0aaa
0aab

#33101000
1aad
0aae
b10100101 aaf

#33122000
0aad

#33200000
1aaa
1aab
b10100110 aac

#33300000
0aaa
0aab
1aae

#33400000
1aaa
1aab
b10100111 aac

#33500000
0aaa
0aab

#33542000
1aad
b10100110 aaf

#33563000
0aad

#33583000
1aad
0aae
b10100111 aaf

#33600000
1aaa
1aab
b10101000 aac

#33604000
0aad

#33700000
0aaa
0aab
1aae

#33800000
1aaa
1aab
b10101001 aac

#33900000
0aaa
0aab

#34000000
1aaa
1aab
b10101010 aac

#34024000
1aad
b10101000 aaf

#34045000
0aad

#34065000
1aad
b10101001 aaf

#34086000
0aad

#34100000
0aaa
0aab

#34106000
1aad
0aae
b10101010 aaf

#34127000
0aad

#34200000
1aaa
1aab
b10101011 aac

#34300000
0aaa
0aab
1aae

#34400000
1aaa
1aab
b10101100 aac

#34500000
0aaa
0aab

#34547000
1aad
b10101011 aaf

#34568000
0aad

#34588000
1aad
0aae
b10101100 aaf

#34600000
1aaa
1aab
b10101101 aac

#34609000
0aad

#34700000
0aaa
0aab
1aae

#34800000
1aaa
1aab
b10101110 aac

#34900000
0aaa
0aab

#35000000
1aaa
1aab
b10101111 aac

#35029000
1aad
b10101101 aaf

#35050000
0aad

#35070000
1aad
b10101110 aaf

#35091000
0aad

#35100000
0aaa
0aab

#35111000
1aad
0aae
b10101111 aaf

#35132000
0aad

#35200000
1aaa
1aab
b10110000 aac

#35300000
0aaa
0aab
1aae

#35400000
1aaa
1aab
b10110001 aac

#35500000
0aaa
0aab

#35552000
1aad
b10110000 aaf

#35573000
0aad

#35593000
1aad
0aae
b10110001 aaf

#35600000
1aaa
1aab
b10110010 aac

#35614000
0aad

#35700000
0aaa
0aab
1aae

#35800000
1aaa
1aab
b10110011 aac

#35900000
0aaa
0aab

#36000000
1aaa
1aab
b10110100 aac

#36034000
1aad
b10110010 aaf

#36055000
0aad

#36075000
1aad
b10110011 aaf

#36096000
0aad

#36100000
0aaa
0aab

#36116000
1aad
0aae
b10110100 aaf

#36137000
0aad

#36200000
1aaa
1aab
b10110101 aac

#36300000
0aaa
0aab
1aae

#36400000
1aaa
1aab
b10110110 aac

#36500000
0aaa
0aab

#36557000
1aad
b10110101 aaf

#36578000
0aad

#36598000
1aad
0aae
b10110110 aaf

#36600000
1aaa
1aab
b10110111 aac

#36619000
0aad

#36700000
0aaa
0aab
1aae

#36800000
1aaa
1aab
b10111000 aac

#36900000
0aaa
0aab

#37000000
1aaa
1aab
b10111001 aac

#37039000
1aad
b10110111 aaf

#37060000
0aad

#37080000
1aad
b10111000 aaf

#37100000
0aaa
0aab
0aae
b10111001 aaf

#37101000
0aad

#37200000
1aaa
1aab
b10111010 aac

#37300000
0aaa
0aab
1aae

#37400000
1aaa
1aab
b10111011 aac

#37500000
0aaa
0aab

#37521000
1aad
b10111010 aaf

#37542000
0aad

#37562000
1aad
0aae
b10111011 aaf

#37583000
0aad

#37600000
1aaa
1aab
b10111100 aac

#37700000
0aaa
0aab
1aae

#37800000
1aaa
1aab
b10111101 aac

#37900000
0aaa
0aab

#38000000
1aaa
1aab
b10111110 aac

#38003000
1aad
b10111100 aaf

#38024000
0aad

#38044000
1aad
b10111101 aaf

#38065000
0aad

#38085000
1aad
0aae
b10111110 aaf

#38100000
0aaa
0aab

#38106000
0aad

#38200000
1aaa
1aab
b10111111 aac

#38300000
0aaa
0aab
1aae

#38400000
1aaa
1aab
b11000000 aac

#38500000
0aaa
0aab

#38526000
1aad
b10111111 aaf

#38547000
0aad

#38567000
1aad
0aae
b11000000 aaf

#38588000
0aad

#38600000
1aaa
1aab
b11000001 aac

#38700000
0aaa
0aab
1aae

#38800000
1aaa
1aab
b11000010 aac

#38900000
0aaa
0aab

#39000000
1aaa
1aab
b11000011 aac

#39008000
1aad
b11000001 aaf

#39029000
0aad

#39049000
1aad
b11000010 aaf

#39070000
0aad

#39090000
1aad
0aae
b11000011 aaf

#39100000
0aaa
0aab

#39111000
0aad

#39200000
1aaa
1aab
b11000100 aac

#39300000
0aaa
0aab
1aae

#39400000
1aaa
1aab
b11000101 aac

#39500000
0aaa
0aab

#39531000
1aad
b11000100 aaf

#39552000
0aad

#39572000
1aad
0aae
b11000101 aaf

#39593000
0aad

#39600000
1aaa
1aab
b11000110 aac

#39700000
0aaa
0aab
1aae

#39800000
1aaa
1aab
b11000111 aac

#39900000
0aaa
0aab

#40000000
1aaa
1aab
b11001000 aac

#40013000
1aad
b11000110 aaf

#40034000
0aad

#40054000
1aad
b11000111 aaf

#40075000
0aad

#40095000
1aad
0aae
b11001000 aaf

#40100000
0aaa
0aab

#40116000
0aad

#40200000
1aaa
1aab
b11001001 aac

#40300000
0aaa
0aab
1aae

#40400000
1aaa
1aab
b11001010 aac

#40500000
0aaa
0aab

#40536000
1aad
b11001001 aaf

#40557000
0aad

#40577000
1aad
0aae
b11001010 aaf

#40598000
0aad

#40600000
1aaa
1aab
b11001011 aac

#40700000
0aaa
0aab
1aae

#40800000
1aaa
1aab
b11001100 aac

#40900000
0aaa
0aab

#41000000
1aaa
1aab
b11001101 aac

#41018000
1aad
b11001011 aaf

#41039000
0aad

#41059000
1aad
b11001100 aaf

#41080000
0aad

#41100000
0aaa
0aab
1aad
0aae
b11001101 aaf

#41121000
0aad

#41200000
1aaa
1aab
b11001110 aac

#41300000
0aaa
0aab
1aae

#41400000
1aaa
1aab
b11001111 aac

#41500000
0aaa
0aab

#41541000
1aad
b11001110 aaf

#41562000
0aad

#41582000
1aad
0aae
b11001111 aaf

#41600000
1aaa
1aab
b11010000 aac

#41603000
0aad

#41700000
0aaa
0aab
1aae

#41800000
1aaa
1aab
b11010001 aac

#41900000
0aaa
0aab

#42000000
1aaa
1aab
b11010010 aac

#42023000
1aad
b11010000 aaf

#42044000
0aad

#42064000
1aad
b11010001 aaf

#42085000
0aad

#42100000
0aaa
0aab

#42105000
1aad
0aae
b11010010 aaf

#42126000
0aad

#42200000
1aaa
1aab
b11010011 aac

#42300000
0aaa
0aab
1aae

#42400000
1aaa
1aab
b11010100 aac

#42500000
0aaa
0aab

#42546000
1aad
b11010011 aaf

#42567000
0aad

#42587000
1aad
0aae
b11010100 aaf

#42600000
1aaa
1aab
b11010101 aac

#42608000
0aad

#42700000
0aaa
0aab
1aae

#42800000
1aaa
1aab
b11010110 aac

#42900000
0aaa
0aab

#43000000
1aaa
1aab
b11010111 aac

#43028000
1aad
b11010101 aaf

#43049000
0aad

#43069000
1aad
b11010110 aaf

#43090000
0aad

#43100000
0aaa
0aab

#43110000
1aad
0aae
b11010111 aaf

#43131000
0aad

#43200000
1aaa
1aab
b11011000 aac

#43300000
0aaa
0aab
1aae

#43400000
1aaa
1aab
b11011001 aac

#43500000
0aaa
0aab

#43551000
1aad
b11011000 aaf

#43572000
0aad

#43592000
1aad
0aae
b11011001 aaf

#43600000
1aaa
1aab
b11011010 aac

#43613000
0aad

#43700000
0aaa
0aab
1aae

#43800000
1aaa
1aab
b11011011 aac

#43900000
0aaa
0aab

#44000000
1aaa
1aab
b11011100 aac

#44033000
1aad
b11011010 aaf

#44054000
0aad

#44074000
1aad
b11011011 aaf

#44095000
0aad

#44100000
0aaa
0aab

#44115000
1aad
0aae
b11011100 aaf

#44136000
0aad

#44200000
1aaa
1aab
b11011101 aac

#44300000
0aaa
0aab
1aae

#44400000
1aaa
1aab
b11011110 aac

#44500000
0aaa
0aab

#44556000
1aad
b11011101 aaf

#44577000
0aad

#44597000
1aad
0aae
b11011110 aaf

#44600000
1aaa
1aab
b11011111 aac

#44618000
0aad

#44700000
0aaa
0aab
1aae

#44800000
1aaa
1aab
b11100000 aac

#44900000
0aaa
0aab

#45000000
1aaa
1aab
b11100001 aac

#45038000
1aad
b11011111 aaf

#45059000
0aad

#45079000
1aad
b11100000 aaf

#45100000
0aaa
0aab
0aad

#45120000
1aad
0aae
b11100001 aaf

#45141000
0aad

#45200000
1aaa
1aab
b11100010 aac

#45300000
0aaa
0aab
1aae

